<svg width="65" height="53" viewBox="0 0 65 53" fill="none" xmlns="http://www.w3.org/2000/svg">
<path fill-rule="evenodd" clip-rule="evenodd" d="M47.5972 0.139841C47.4869 0.2193 47.1662 0.604498 46.8848 0.995864C44.5644 4.22297 43.114 8.9541 42.648 14.8156C42.4665 17.1002 42.5696 22.8808 42.8298 25.0115L42.9965 26.3753L41.7718 27.7985C38.9594 31.0662 38.3399 32.2254 38.3399 34.2187C38.3399 37.1663 40.8252 39.4801 43.9913 39.4801C48.2741 39.4801 50.9462 35.3849 49.0746 31.6895C48.5192 30.5928 47.9406 29.8033 46.2718 27.8658C44.944 26.324 44.915 26.2773 44.8062 25.504C44.4298 22.8262 44.3088 17.2061 44.5671 14.3972C45.0478 9.16911 46.3188 5.06227 48.3657 2.12252C48.9749 1.24752 49.0489 1.08303 49.0189 0.669726C48.9799 0.131895 48.0762 -0.204916 47.5972 0.139841ZM22.6474 1.73709C22.2934 2.06726 21.4046 3.40335 20.8523 4.43513C19.3734 7.19805 18.3534 10.9484 17.885 15.3459C17.5855 18.1579 17.6939 24.2511 18.0992 27.3834C18.1663 27.9016 18.1438 27.9446 17.326 28.8658C14.7128 31.8096 14.1715 33.3412 15.007 35.4272C15.359 36.3063 16.4811 37.3503 17.4309 37.6822C18.4984 38.0553 19.2534 38.1113 20.1941 37.8873C22.3134 37.3826 23.6625 35.7591 23.6503 33.7282C23.6418 32.3117 23.0403 31.2027 21.022 28.8824L20.0682 27.7859L19.8483 25.9539C19.5369 23.3586 19.5365 17.1011 19.8476 14.6936C20.4685 9.88744 21.6952 6.23363 23.6017 3.51234C23.9573 3.00487 24.2481 2.49171 24.2481 2.37205C24.2481 2.25238 24.1297 2.01389 23.9849 1.84204C23.6702 1.46823 22.9924 1.4151 22.6474 1.73709ZM0.571403 26.0972C-0.0226098 26.4007 0.000114794 25.8671 0.000114794 39.4868C0.000114794 52.3459 0.000749555 52.3757 0.263288 52.6875L0.526335 53H32.5001H64.4738L64.7368 52.6875C64.9994 52.3757 65 52.3461 65 39.4773C65 26.9549 64.9929 26.5713 64.7573 26.2995L64.5147 26.0195H61.4063C58.5279 26.0195 58.2784 26.0362 58.0309 26.2454C57.6822 26.5403 57.6755 27.1823 58.0176 27.502C58.2537 27.7225 58.4407 27.7392 60.6836 27.7392H63.0957V36.0897V44.4403L62.6196 44.5083C62.3579 44.5457 60.8296 44.7106 59.2236 44.8748C48.0781 46.0143 45.4374 46.0201 35.0391 44.9283C33.1888 44.734 30.4752 44.4673 29.0089 44.3355C26.1651 44.0801 21.0886 43.8982 20.5208 44.0312C20.3041 44.0821 20.1046 44.2558 19.9778 44.5045C19.7942 44.8639 19.7947 44.9292 19.9838 45.2705C20.0973 45.4757 20.3178 45.6678 20.4736 45.6974C20.6295 45.7269 22.0137 45.779 23.5499 45.8129C26.3136 45.8741 28.5002 46.0331 32.6942 46.478C45.1787 47.8024 47.7255 47.8252 58.7793 46.7111C60.6995 46.5176 62.4561 46.3301 62.6831 46.2943L63.0957 46.2293V48.7252V51.2211H32.5001H1.90441V49.2795V47.338L2.95177 47.259C3.52788 47.2155 5.85582 46.9917 8.1251 46.7616C10.3944 46.5316 13.2961 46.2461 14.5735 46.1275C16.3897 45.9587 16.9501 45.8659 17.1443 45.7018C17.4832 45.4152 17.4711 44.7716 17.1209 44.4444C16.8663 44.2066 16.7675 44.1955 15.5657 44.269C14.8598 44.3122 11.9686 44.5836 9.14072 44.8721C6.31285 45.1606 3.52776 45.4333 2.95177 45.4778L1.90441 45.5591V36.6491V27.7392H7.68077C10.8578 27.7392 13.4571 27.7632 13.4571 27.7928C13.4571 27.8223 13.2069 28.1825 12.9012 28.5933C10.684 31.572 10.3646 34.6528 11.9752 37.5233C12.2125 37.9462 12.7901 38.6259 13.399 39.1988C14.2181 39.9693 14.6385 40.2593 15.4955 40.6444C18.7876 42.124 22.4152 41.5676 24.9568 39.1933C26.5612 37.6944 27.3425 35.9441 27.3431 33.8468C27.3437 31.9869 26.7843 30.4378 25.4651 28.6461C25.136 28.1991 24.89 27.8116 24.9183 27.785C24.9467 27.7586 27.689 27.7507 31.0124 27.7676L37.0549 27.7985L36.6042 28.4507C34.4441 31.5774 34.0298 34.8864 35.4336 37.8015C36.4923 40.0002 38.6175 41.7753 41.0976 42.5323C42.4453 42.9437 44.6194 43.0361 46.041 42.7422C49.4154 42.0447 52.13 39.6208 53.0813 36.4559C53.4357 35.2767 53.4739 33.2789 53.1629 32.1865C52.7673 30.797 52.0955 29.4474 51.1112 28.0653L50.879 27.7392H52.7838C54.876 27.7392 55.1274 27.6653 55.2956 27.0009C55.3612 26.7419 55.3013 26.6066 54.9934 26.319L54.6094 25.9602H51.6699H48.7305L48.3465 26.319C47.8468 26.7858 47.9074 27.0015 48.8847 28.2329C49.9984 29.636 50.6362 30.6935 51.074 31.8628C51.4121 32.7655 51.4615 33.0576 51.4601 34.1433C51.4588 35.1864 51.4022 35.5426 51.1119 36.3373C50.4572 38.1294 49.2107 39.513 47.4935 40.354C46.3681 40.905 45.3194 41.1404 43.9893 41.1404C43.3811 41.1404 42.5324 41.0559 42.1033 40.9525C39.5399 40.3346 37.4073 38.3297 36.7371 35.9075C36.4889 35.0102 36.463 33.4996 36.6804 32.5968C36.9146 31.6241 38.1021 29.4817 39.1026 28.2269C39.5909 27.6145 39.9903 27.0434 39.9903 26.9576C39.9903 26.6443 39.7007 26.2203 39.3991 26.0919C39.1825 25.9997 36.6185 25.9602 30.8508 25.9602H22.6119L22.2663 26.238C21.6984 26.6942 21.7926 27.0913 22.7249 28.1713C24.9983 30.8048 25.7636 32.6803 25.395 34.7149C24.8217 37.8801 21.5306 40.1393 18.2496 39.6198C15.4884 39.1828 13.4043 37.251 12.9423 34.7006C12.573 32.6616 13.3721 30.7197 15.6544 28.1098C16.5453 27.091 16.6353 26.6891 16.0737 26.238L15.7281 25.9602L8.27668 25.9638C3.12887 25.9663 0.746852 26.0075 0.571403 26.0972ZM45.7757 30.1111C47.8092 32.6145 48.2347 34.2798 47.2658 35.9428C46.8865 36.594 46.449 36.984 45.6544 37.3799C44.8935 37.7589 43.0783 37.7554 42.3106 37.3734C41.0144 36.7285 40.2475 35.5635 40.2455 34.2368C40.2433 32.8556 40.8712 31.6796 42.8385 29.3802L43.9727 28.0543L44.4647 28.5787C44.7353 28.867 45.3252 29.5566 45.7757 30.1111ZM20.0658 30.5864C21.702 32.4929 22.1213 33.8804 21.406 35.0207C20.3998 36.6247 17.9335 36.6138 16.9217 35.0009C16.3244 34.0489 16.4904 32.9505 17.4274 31.6555C18.0621 30.7783 19.0835 29.6296 19.1974 29.665C19.2557 29.6832 19.6465 30.0978 20.0658 30.5864Z" fill="#534859"/>
</svg>
